F common.css                                                                                                                                                                                                      	common.css
F default.css                                                                                                                                                                                                     	default.css
F menu.css                                                                                                                                                                                                        	menu.css
F overrides.css                                                                                                                                                                                                   	overrides.css
F pdf.css                                                                                                                                                                                                         	pdf.css
F print.css                                                                                                                                                                                                       	print.css
